[ {
  "jsonClass" : "Action",
  "resource" : {
    "jsonClass" : "Resource",
    "item" : {
      "jsonClass" : "EveItem",
      "name" : "Damage Control II",
      "groupId" : 60,
      "categoryId" : 7,
      "category" : "Module",
      "baseprice" : 0.0,
      "defaultprice" : -1.0,
      "volume" : 5.0,
      "tech" : "Tech II",
      "industryGroup" : "COMPONENTS",
      "typeId" : 2048,
      "price" : 459145.45,
      "blueprint" : false,
      "itemId" : 2048,
      "itemID" : 2048,
      "hullGroup" : "not-applies",
      "categoryName" : "Module",
      "typeID" : 2048,
      "groupName" : "Damage Control",
      "lowestSellerPrice" : {
        "location" : {
          "jsonClass" : "EveLocation",
          "id" : 30002659,
          "stationID" : 30002659,
          "station" : "Dodixie",
          "systemID" : 30002659,
          "system" : "Dodixie",
          "constellationID" : 20000389,
          "constellation" : "Coriault",
          "regionID" : 10000032,
          "region" : "Sinq Laison",
          "security" : "0.868406701642885",
          "typeID" : "CCPLOCATION",
          "urlLocationIcon" : "http://image.eveonline.com/Render/1529_64.png",
          "name" : "Dodixie - Dodixie",
          "securityValue" : 0.868406701642885,
          "fullLocation" : "[0.868406701642885] Dodixie - Sinq Laison > Dodixie",
          "realId" : -2,
          "citadel" : false,
          "unknown" : true
        },
        "qty" : 38,
        "price" : 470001.0,
        "region" : "Sinq Laison",
        "security" : "0.868406701642885",
        "constellation" : "Coriault",
        "system" : "Dodixie"
      },
      "highestBuyerPrice" : {
        "location" : {
          "jsonClass" : "EveLocation",
          "id" : 30002659,
          "stationID" : 30002659,
          "station" : "Dodixie",
          "systemID" : 30002659,
          "system" : "Dodixie",
          "constellationID" : 20000389,
          "constellation" : "Coriault",
          "regionID" : 10000032,
          "region" : "Sinq Laison",
          "security" : "0.868406701642885",
          "typeID" : "CCPLOCATION",
          "urlLocationIcon" : "http://image.eveonline.com/Render/1529_64.png",
          "name" : "Dodixie - Dodixie",
          "securityValue" : 0.868406701642885,
          "fullLocation" : "[0.868406701642885] Dodixie - Sinq Laison > Dodixie",
          "realId" : -2,
          "citadel" : false,
          "unknown" : true
        },
        "qty" : 38,
        "price" : 470001.0,
        "region" : "Sinq Laison",
        "security" : "0.868406701642885",
        "constellation" : "Coriault",
        "system" : "Dodixie"
      }
    },
    "baseQty" : 1,
    "stackSize" : 1,
    "damage" : 1.0,
    "name" : "Damage Control II",
    "typeId" : 2048,
    "quantity" : 1,
    "category" : "Module",
    "groupName" : "Damage Control",
    "baseQuantity" : 1
  },
  "requestQty" : 1,
  "completedQty" : 0,
  "empty" : true,
  "priority" : 300,
  "typeId" : 2048,
  "price" : 459145.45,
  "itemName" : "Damage Control II",
  "category" : "Module",
  "groupName" : "Damage Control",
  "userAction" : null,
  "tasks" : [ {
    "jsonClass" : "EveTask",
    "taskType" : "BUY",
    "typeId" : 2048,
    "itemName" : "Damage Control II",
    "price" : 470001.0,
    "basePrice" : 0.0,
    "quantity" : 1,
    "item" : {
      "jsonClass" : "EveItem",
      "name" : "Damage Control II",
      "groupId" : 60,
      "categoryId" : 7,
      "category" : "Module",
      "baseprice" : 0.0,
      "defaultprice" : 459145.45,
      "volume" : 5.0,
      "tech" : "Tech II",
      "industryGroup" : "COMPONENTS",
      "typeId" : 2048,
      "price" : 459145.45,
      "blueprint" : false,
      "itemId" : 2048,
      "itemID" : 2048,
      "hullGroup" : "not-applies",
      "categoryName" : "Module",
      "typeID" : 2048,
      "groupName" : "Damage Control",
      "lowestSellerPrice" : {
        "location" : {
          "jsonClass" : "EveLocation",
          "id" : 30002659,
          "stationID" : 30002659,
          "station" : "Dodixie",
          "systemID" : 30002659,
          "system" : "Dodixie",
          "constellationID" : 20000389,
          "constellation" : "Coriault",
          "regionID" : 10000032,
          "region" : "Sinq Laison",
          "security" : "0.868406701642885",
          "typeID" : "CCPLOCATION",
          "urlLocationIcon" : "http://image.eveonline.com/Render/1529_64.png",
          "name" : "Dodixie - Dodixie",
          "securityValue" : 0.868406701642885,
          "fullLocation" : "[0.868406701642885] Dodixie - Sinq Laison > Dodixie",
          "realId" : -2,
          "citadel" : false,
          "unknown" : true
        },
        "qty" : 38,
        "price" : 470001.0,
        "region" : "Sinq Laison",
        "security" : "0.868406701642885",
        "constellation" : "Coriault",
        "system" : "Dodixie"
      },
      "highestBuyerPrice" : {
        "location" : {
          "jsonClass" : "EveLocation",
          "id" : 30002659,
          "stationID" : 30002659,
          "station" : "Dodixie",
          "systemID" : 30002659,
          "system" : "Dodixie",
          "constellationID" : 20000389,
          "constellation" : "Coriault",
          "regionID" : 10000032,
          "region" : "Sinq Laison",
          "security" : "0.868406701642885",
          "typeID" : "CCPLOCATION",
          "urlLocationIcon" : "http://image.eveonline.com/Render/1529_64.png",
          "name" : "Dodixie - Dodixie",
          "securityValue" : 0.868406701642885,
          "fullLocation" : "[0.868406701642885] Dodixie - Sinq Laison > Dodixie",
          "realId" : -2,
          "citadel" : false,
          "unknown" : true
        },
        "qty" : 38,
        "price" : 470001.0,
        "region" : "Sinq Laison",
        "security" : "0.868406701642885",
        "constellation" : "Coriault",
        "system" : "Dodixie"
      }
    },
    "sourceLocation" : {
      "jsonClass" : "EveLocation",
      "id" : 30002659,
      "stationID" : 30002659,
      "station" : "Dodixie",
      "systemID" : 30002659,
      "system" : "Dodixie",
      "constellationID" : 20000389,
      "constellation" : "Coriault",
      "regionID" : 10000032,
      "region" : "Sinq Laison",
      "security" : "0.868406701642885",
      "typeID" : "CCPLOCATION",
      "urlLocationIcon" : "http://image.eveonline.com/Render/1529_64.png",
      "name" : "Dodixie - Dodixie",
      "securityValue" : 0.868406701642885,
      "fullLocation" : "[0.868406701642885] Dodixie - Sinq Laison > Dodixie",
      "realId" : -2,
      "citadel" : false,
      "unknown" : true
    },
    "destination" : {
      "jsonClass" : "EveLocation",
      "id" : 60006526,
      "stationID" : 60006526,
      "station" : "Esescama VIII - Moon 3 - Imperial Armaments Warehouse",
      "systemID" : 30002964,
      "system" : "Esescama",
      "constellationID" : 20000434,
      "constellation" : "Ryra",
      "regionID" : 10000036,
      "region" : "Devoid",
      "security" : "0.612691959383857",
      "typeID" : "CCPLOCATION",
      "urlLocationIcon" : "http://image.eveonline.com/Render/1529_64.png",
      "name" : "Esescama - Esescama VIII - Moon 3 - Imperial Armaments Warehouse",
      "securityValue" : 0.612691959383857,
      "fullLocation" : "[0.612691959383857] Esescama VIII - Moon 3 - Imperial Armaments Warehouse - Devoid > Esescama",
      "realId" : -2,
      "citadel" : false,
      "unknown" : true
    },
    "referencedAsset" : null
  } ],
  "itemIndustryGroup" : "COMPONENTS",
  "expanded" : false,
  "renderWhenEmpty" : true
}, {
  "jsonClass" : "Action",
  "resource" : {
    "jsonClass" : "Resource",
    "item" : {
      "jsonClass" : "EveItem",
      "name" : "Warp Core Stabilizer I",
      "groupId" : 315,
      "categoryId" : 7,
      "category" : "Module",
      "baseprice" : 0.0,
      "defaultprice" : -1.0,
      "volume" : 5.0,
      "tech" : "Tech I",
      "industryGroup" : "COMPONENTS",
      "typeId" : 10998,
      "price" : 21677.62,
      "blueprint" : false,
      "itemId" : 10998,
      "itemID" : 10998,
      "hullGroup" : "not-applies",
      "categoryName" : "Module",
      "typeID" : 10998,
      "groupName" : "Warp Core Stabilizer",
      "lowestSellerPrice" : {
        "location" : {
          "jsonClass" : "EveLocation",
          "id" : 30000142,
          "stationID" : 30000142,
          "station" : "Jita",
          "systemID" : 30000142,
          "system" : "Jita",
          "constellationID" : 20000020,
          "constellation" : "Kimotoro",
          "regionID" : 10000002,
          "region" : "The Forge",
          "security" : "0.945913116664839",
          "typeID" : "CCPLOCATION",
          "urlLocationIcon" : "http://image.eveonline.com/Render/1529_64.png",
          "name" : "Jita - Jita",
          "securityValue" : 0.945913116664839,
          "fullLocation" : "[0.945913116664839] Jita - The Forge > Jita",
          "realId" : -2,
          "citadel" : false,
          "unknown" : true
        },
        "qty" : 6390,
        "price" : 16651.0,
        "region" : "The Forge",
        "security" : "0.945913116664839",
        "constellation" : "Kimotoro",
        "system" : "Jita"
      },
      "highestBuyerPrice" : {
        "location" : {
          "jsonClass" : "EveLocation",
          "id" : 30000142,
          "stationID" : 30000142,
          "station" : "Jita",
          "systemID" : 30000142,
          "system" : "Jita",
          "constellationID" : 20000020,
          "constellation" : "Kimotoro",
          "regionID" : 10000002,
          "region" : "The Forge",
          "security" : "0.945913116664839",
          "typeID" : "CCPLOCATION",
          "urlLocationIcon" : "http://image.eveonline.com/Render/1529_64.png",
          "name" : "Jita - Jita",
          "securityValue" : 0.945913116664839,
          "fullLocation" : "[0.945913116664839] Jita - The Forge > Jita",
          "realId" : -2,
          "citadel" : false,
          "unknown" : true
        },
        "qty" : 6390,
        "price" : 16651.0,
        "region" : "The Forge",
        "security" : "0.945913116664839",
        "constellation" : "Kimotoro",
        "system" : "Jita"
      }
    },
    "baseQty" : 2,
    "stackSize" : 1,
    "damage" : 1.0,
    "name" : "Warp Core Stabilizer I",
    "typeId" : 10998,
    "quantity" : 2,
    "category" : "Module",
    "groupName" : "Warp Core Stabilizer",
    "baseQuantity" : 2
  },
  "requestQty" : 2,
  "completedQty" : 0,
  "empty" : true,
  "priority" : 300,
  "typeId" : 10998,
  "price" : 21677.62,
  "itemName" : "Warp Core Stabilizer I",
  "category" : "Module",
  "groupName" : "Warp Core Stabilizer",
  "userAction" : null,
  "tasks" : [ {
    "jsonClass" : "EveTask",
    "taskType" : "BUYCOVERED",
    "typeId" : 10998,
    "itemName" : "Warp Core Stabilizer I",
    "price" : 16651.0,
    "basePrice" : 0.0,
    "quantity" : 2,
    "item" : {
      "jsonClass" : "EveItem",
      "name" : "Warp Core Stabilizer I",
      "groupId" : 315,
      "categoryId" : 7,
      "category" : "Module",
      "baseprice" : 0.0,
      "defaultprice" : 21677.62,
      "volume" : 5.0,
      "tech" : "Tech I",
      "industryGroup" : "COMPONENTS",
      "typeId" : 10998,
      "price" : 21677.62,
      "blueprint" : false,
      "itemId" : 10998,
      "itemID" : 10998,
      "hullGroup" : "not-applies",
      "categoryName" : "Module",
      "typeID" : 10998,
      "groupName" : "Warp Core Stabilizer",
      "lowestSellerPrice" : {
        "location" : {
          "jsonClass" : "EveLocation",
          "id" : 30000142,
          "stationID" : 30000142,
          "station" : "Jita",
          "systemID" : 30000142,
          "system" : "Jita",
          "constellationID" : 20000020,
          "constellation" : "Kimotoro",
          "regionID" : 10000002,
          "region" : "The Forge",
          "security" : "0.945913116664839",
          "typeID" : "CCPLOCATION",
          "urlLocationIcon" : "http://image.eveonline.com/Render/1529_64.png",
          "name" : "Jita - Jita",
          "securityValue" : 0.945913116664839,
          "fullLocation" : "[0.945913116664839] Jita - The Forge > Jita",
          "realId" : -2,
          "citadel" : false,
          "unknown" : true
        },
        "qty" : 6390,
        "price" : 16651.0,
        "region" : "The Forge",
        "security" : "0.945913116664839",
        "constellation" : "Kimotoro",
        "system" : "Jita"
      },
      "highestBuyerPrice" : {
        "location" : {
          "jsonClass" : "EveLocation",
          "id" : 30000142,
          "stationID" : 30000142,
          "station" : "Jita",
          "systemID" : 30000142,
          "system" : "Jita",
          "constellationID" : 20000020,
          "constellation" : "Kimotoro",
          "regionID" : 10000002,
          "region" : "The Forge",
          "security" : "0.945913116664839",
          "typeID" : "CCPLOCATION",
          "urlLocationIcon" : "http://image.eveonline.com/Render/1529_64.png",
          "name" : "Jita - Jita",
          "securityValue" : 0.945913116664839,
          "fullLocation" : "[0.945913116664839] Jita - The Forge > Jita",
          "realId" : -2,
          "citadel" : false,
          "unknown" : true
        },
        "qty" : 6390,
        "price" : 16651.0,
        "region" : "The Forge",
        "security" : "0.945913116664839",
        "constellation" : "Kimotoro",
        "system" : "Jita"
      }
    },
    "sourceLocation" : {
      "jsonClass" : "EveLocation",
      "id" : 30000142,
      "stationID" : 30000142,
      "station" : "Jita",
      "systemID" : 30000142,
      "system" : "Jita",
      "constellationID" : 20000020,
      "constellation" : "Kimotoro",
      "regionID" : 10000002,
      "region" : "The Forge",
      "security" : "0.945913116664839",
      "typeID" : "CCPLOCATION",
      "urlLocationIcon" : "http://image.eveonline.com/Render/1529_64.png",
      "name" : "Jita - Jita",
      "securityValue" : 0.945913116664839,
      "fullLocation" : "[0.945913116664839] Jita - The Forge > Jita",
      "realId" : -2,
      "citadel" : false,
      "unknown" : true
    },
    "destination" : {
      "jsonClass" : "EveLocation",
      "id" : 60006526,
      "stationID" : 60006526,
      "station" : "Esescama VIII - Moon 3 - Imperial Armaments Warehouse",
      "systemID" : 30002964,
      "system" : "Esescama",
      "constellationID" : 20000434,
      "constellation" : "Ryra",
      "regionID" : 10000036,
      "region" : "Devoid",
      "security" : "0.612691959383857",
      "typeID" : "CCPLOCATION",
      "urlLocationIcon" : "http://image.eveonline.com/Render/1529_64.png",
      "name" : "Esescama - Esescama VIII - Moon 3 - Imperial Armaments Warehouse",
      "securityValue" : 0.612691959383857,
      "fullLocation" : "[0.612691959383857] Esescama VIII - Moon 3 - Imperial Armaments Warehouse - Devoid > Esescama",
      "realId" : -2,
      "citadel" : false,
      "unknown" : true
    },
    "referencedAsset" : null
  } ],
  "itemIndustryGroup" : "COMPONENTS",
  "expanded" : false,
  "renderWhenEmpty" : true
}, {
  "jsonClass" : "Action",
  "resource" : {
    "jsonClass" : "Resource",
    "item" : {
      "jsonClass" : "EveItem",
      "name" : "Medium Shield Extender II",
      "groupId" : 38,
      "categoryId" : 7,
      "category" : "Module",
      "baseprice" : 0.0,
      "defaultprice" : -1.0,
      "volume" : 10.0,
      "tech" : "Tech II",
      "industryGroup" : "COMPONENTS",
      "typeId" : 3831,
      "price" : 643573.46,
      "blueprint" : false,
      "itemId" : 3831,
      "itemID" : 3831,
      "hullGroup" : "not-applies",
      "categoryName" : "Module",
      "typeID" : 3831,
      "groupName" : "Shield Extender",
      "lowestSellerPrice" : {
        "location" : {
          "jsonClass" : "EveLocation",
          "id" : 30002187,
          "stationID" : 30002187,
          "station" : "Amarr",
          "systemID" : 30002187,
          "system" : "Amarr",
          "constellationID" : 20000322,
          "constellation" : "Throne Worlds",
          "regionID" : 10000043,
          "region" : "Domain",
          "security" : "1.0",
          "typeID" : "CCPLOCATION",
          "urlLocationIcon" : "http://image.eveonline.com/Render/1529_64.png",
          "name" : "Amarr - Amarr",
          "securityValue" : 1.0,
          "fullLocation" : "[1.0] Amarr - Domain > Amarr",
          "realId" : -2,
          "citadel" : false,
          "unknown" : true
        },
        "qty" : 202,
        "price" : 618950.0,
        "region" : "Domain",
        "security" : "1.0",
        "constellation" : "Throne Worlds",
        "system" : "Amarr"
      },
      "highestBuyerPrice" : {
        "location" : {
          "jsonClass" : "EveLocation",
          "id" : 30002187,
          "stationID" : 30002187,
          "station" : "Amarr",
          "systemID" : 30002187,
          "system" : "Amarr",
          "constellationID" : 20000322,
          "constellation" : "Throne Worlds",
          "regionID" : 10000043,
          "region" : "Domain",
          "security" : "1.0",
          "typeID" : "CCPLOCATION",
          "urlLocationIcon" : "http://image.eveonline.com/Render/1529_64.png",
          "name" : "Amarr - Amarr",
          "securityValue" : 1.0,
          "fullLocation" : "[1.0] Amarr - Domain > Amarr",
          "realId" : -2,
          "citadel" : false,
          "unknown" : true
        },
        "qty" : 202,
        "price" : 618950.0,
        "region" : "Domain",
        "security" : "1.0",
        "constellation" : "Throne Worlds",
        "system" : "Amarr"
      }
    },
    "baseQty" : 1,
    "stackSize" : 1,
    "damage" : 1.0,
    "name" : "Medium Shield Extender II",
    "typeId" : 3831,
    "quantity" : 1,
    "category" : "Module",
    "groupName" : "Shield Extender",
    "baseQuantity" : 1
  },
  "requestQty" : 1,
  "completedQty" : 0,
  "empty" : true,
  "priority" : 300,
  "typeId" : 3831,
  "price" : 643573.46,
  "itemName" : "Medium Shield Extender II",
  "category" : "Module",
  "groupName" : "Shield Extender",
  "userAction" : null,
  "tasks" : [ {
    "jsonClass" : "EveTask",
    "taskType" : "BUY",
    "typeId" : 3831,
    "itemName" : "Medium Shield Extender II",
    "price" : 618950.0,
    "basePrice" : 0.0,
    "quantity" : 1,
    "item" : {
      "jsonClass" : "EveItem",
      "name" : "Medium Shield Extender II",
      "groupId" : 38,
      "categoryId" : 7,
      "category" : "Module",
      "baseprice" : 0.0,
      "defaultprice" : 643573.46,
      "volume" : 10.0,
      "tech" : "Tech II",
      "industryGroup" : "COMPONENTS",
      "typeId" : 3831,
      "price" : 643573.46,
      "blueprint" : false,
      "itemId" : 3831,
      "itemID" : 3831,
      "hullGroup" : "not-applies",
      "categoryName" : "Module",
      "typeID" : 3831,
      "groupName" : "Shield Extender",
      "lowestSellerPrice" : {
        "location" : {
          "jsonClass" : "EveLocation",
          "id" : 30002187,
          "stationID" : 30002187,
          "station" : "Amarr",
          "systemID" : 30002187,
          "system" : "Amarr",
          "constellationID" : 20000322,
          "constellation" : "Throne Worlds",
          "regionID" : 10000043,
          "region" : "Domain",
          "security" : "1.0",
          "typeID" : "CCPLOCATION",
          "urlLocationIcon" : "http://image.eveonline.com/Render/1529_64.png",
          "name" : "Amarr - Amarr",
          "securityValue" : 1.0,
          "fullLocation" : "[1.0] Amarr - Domain > Amarr",
          "realId" : -2,
          "citadel" : false,
          "unknown" : true
        },
        "qty" : 202,
        "price" : 618950.0,
        "region" : "Domain",
        "security" : "1.0",
        "constellation" : "Throne Worlds",
        "system" : "Amarr"
      },
      "highestBuyerPrice" : {
        "location" : {
          "jsonClass" : "EveLocation",
          "id" : 30002187,
          "stationID" : 30002187,
          "station" : "Amarr",
          "systemID" : 30002187,
          "system" : "Amarr",
          "constellationID" : 20000322,
          "constellation" : "Throne Worlds",
          "regionID" : 10000043,
          "region" : "Domain",
          "security" : "1.0",
          "typeID" : "CCPLOCATION",
          "urlLocationIcon" : "http://image.eveonline.com/Render/1529_64.png",
          "name" : "Amarr - Amarr",
          "securityValue" : 1.0,
          "fullLocation" : "[1.0] Amarr - Domain > Amarr",
          "realId" : -2,
          "citadel" : false,
          "unknown" : true
        },
        "qty" : 202,
        "price" : 618950.0,
        "region" : "Domain",
        "security" : "1.0",
        "constellation" : "Throne Worlds",
        "system" : "Amarr"
      }
    },
    "sourceLocation" : {
      "jsonClass" : "EveLocation",
      "id" : 30002187,
      "stationID" : 30002187,
      "station" : "Amarr",
      "systemID" : 30002187,
      "system" : "Amarr",
      "constellationID" : 20000322,
      "constellation" : "Throne Worlds",
      "regionID" : 10000043,
      "region" : "Domain",
      "security" : "1.0",
      "typeID" : "CCPLOCATION",
      "urlLocationIcon" : "http://image.eveonline.com/Render/1529_64.png",
      "name" : "Amarr - Amarr",
      "securityValue" : 1.0,
      "fullLocation" : "[1.0] Amarr - Domain > Amarr",
      "realId" : -2,
      "citadel" : false,
      "unknown" : true
    },
    "destination" : {
      "jsonClass" : "EveLocation",
      "id" : 60006526,
      "stationID" : 60006526,
      "station" : "Esescama VIII - Moon 3 - Imperial Armaments Warehouse",
      "systemID" : 30002964,
      "system" : "Esescama",
      "constellationID" : 20000434,
      "constellation" : "Ryra",
      "regionID" : 10000036,
      "region" : "Devoid",
      "security" : "0.612691959383857",
      "typeID" : "CCPLOCATION",
      "urlLocationIcon" : "http://image.eveonline.com/Render/1529_64.png",
      "name" : "Esescama - Esescama VIII - Moon 3 - Imperial Armaments Warehouse",
      "securityValue" : 0.612691959383857,
      "fullLocation" : "[0.612691959383857] Esescama VIII - Moon 3 - Imperial Armaments Warehouse - Devoid > Esescama",
      "realId" : -2,
      "citadel" : false,
      "unknown" : true
    },
    "referencedAsset" : null
  } ],
  "itemIndustryGroup" : "COMPONENTS",
  "expanded" : false,
  "renderWhenEmpty" : true
}, {
  "jsonClass" : "Action",
  "resource" : {
    "jsonClass" : "Resource",
    "item" : {
      "jsonClass" : "EveItem",
      "name" : "50MN Cold-Gas Enduring Microwarpdrive",
      "groupId" : 46,
      "categoryId" : 7,
      "category" : "Module",
      "baseprice" : 37748.0,
      "defaultprice" : -1.0,
      "volume" : 10.0,
      "tech" : "Tech I",
      "industryGroup" : "COMPONENTS",
      "typeId" : 5975,
      "price" : 8818.16,
      "blueprint" : false,
      "itemId" : 5975,
      "itemID" : 5975,
      "hullGroup" : "not-applies",
      "categoryName" : "Module",
      "typeID" : 5975,
      "groupName" : "Propulsion Module",
      "lowestSellerPrice" : {
        "location" : {
          "jsonClass" : "EveLocation",
          "id" : 30002053,
          "stationID" : 30002053,
          "station" : "Hek",
          "systemID" : 30002053,
          "system" : "Hek",
          "constellationID" : 20000302,
          "constellation" : "Barvigrard",
          "regionID" : 10000042,
          "region" : "Metropolis",
          "security" : "0.549668267074902",
          "typeID" : "CCPLOCATION",
          "urlLocationIcon" : "http://image.eveonline.com/Render/1529_64.png",
          "name" : "Hek - Hek",
          "securityValue" : 0.549668267074902,
          "fullLocation" : "[0.549668267074902] Hek - Metropolis > Hek",
          "realId" : -2,
          "citadel" : false,
          "unknown" : true
        },
        "qty" : 2674,
        "price" : 10000.0,
        "region" : "Metropolis",
        "security" : "0.549668267074902",
        "constellation" : "Barvigrard",
        "system" : "Hek"
      },
      "highestBuyerPrice" : {
        "location" : {
          "jsonClass" : "EveLocation",
          "id" : 30002053,
          "stationID" : 30002053,
          "station" : "Hek",
          "systemID" : 30002053,
          "system" : "Hek",
          "constellationID" : 20000302,
          "constellation" : "Barvigrard",
          "regionID" : 10000042,
          "region" : "Metropolis",
          "security" : "0.549668267074902",
          "typeID" : "CCPLOCATION",
          "urlLocationIcon" : "http://image.eveonline.com/Render/1529_64.png",
          "name" : "Hek - Hek",
          "securityValue" : 0.549668267074902,
          "fullLocation" : "[0.549668267074902] Hek - Metropolis > Hek",
          "realId" : -2,
          "citadel" : false,
          "unknown" : true
        },
        "qty" : 2674,
        "price" : 10000.0,
        "region" : "Metropolis",
        "security" : "0.549668267074902",
        "constellation" : "Barvigrard",
        "system" : "Hek"
      }
    },
    "baseQty" : 1,
    "stackSize" : 1,
    "damage" : 1.0,
    "name" : "50MN Cold-Gas Enduring Microwarpdrive",
    "typeId" : 5975,
    "quantity" : 1,
    "category" : "Module",
    "groupName" : "Propulsion Module",
    "baseQuantity" : 1
  },
  "requestQty" : 1,
  "completedQty" : 0,
  "empty" : true,
  "priority" : 300,
  "typeId" : 5975,
  "price" : 8818.16,
  "itemName" : "50MN Cold-Gas Enduring Microwarpdrive",
  "category" : "Module",
  "groupName" : "Propulsion Module",
  "userAction" : null,
  "tasks" : [ {
    "jsonClass" : "EveTask",
    "taskType" : "BUY",
    "typeId" : 5975,
    "itemName" : "50MN Cold-Gas Enduring Microwarpdrive",
    "price" : 10000.0,
    "basePrice" : 37748.0,
    "quantity" : 1,
    "item" : {
      "jsonClass" : "EveItem",
      "name" : "50MN Cold-Gas Enduring Microwarpdrive",
      "groupId" : 46,
      "categoryId" : 7,
      "category" : "Module",
      "baseprice" : 37748.0,
      "defaultprice" : 8818.16,
      "volume" : 10.0,
      "tech" : "Tech I",
      "industryGroup" : "COMPONENTS",
      "typeId" : 5975,
      "price" : 8818.16,
      "blueprint" : false,
      "itemId" : 5975,
      "itemID" : 5975,
      "hullGroup" : "not-applies",
      "categoryName" : "Module",
      "typeID" : 5975,
      "groupName" : "Propulsion Module",
      "lowestSellerPrice" : {
        "location" : {
          "jsonClass" : "EveLocation",
          "id" : 30002053,
          "stationID" : 30002053,
          "station" : "Hek",
          "systemID" : 30002053,
          "system" : "Hek",
          "constellationID" : 20000302,
          "constellation" : "Barvigrard",
          "regionID" : 10000042,
          "region" : "Metropolis",
          "security" : "0.549668267074902",
          "typeID" : "CCPLOCATION",
          "urlLocationIcon" : "http://image.eveonline.com/Render/1529_64.png",
          "name" : "Hek - Hek",
          "securityValue" : 0.549668267074902,
          "fullLocation" : "[0.549668267074902] Hek - Metropolis > Hek",
          "realId" : -2,
          "citadel" : false,
          "unknown" : true
        },
        "qty" : 2674,
        "price" : 10000.0,
        "region" : "Metropolis",
        "security" : "0.549668267074902",
        "constellation" : "Barvigrard",
        "system" : "Hek"
      },
      "highestBuyerPrice" : {
        "location" : {
          "jsonClass" : "EveLocation",
          "id" : 30002053,
          "stationID" : 30002053,
          "station" : "Hek",
          "systemID" : 30002053,
          "system" : "Hek",
          "constellationID" : 20000302,
          "constellation" : "Barvigrard",
          "regionID" : 10000042,
          "region" : "Metropolis",
          "security" : "0.549668267074902",
          "typeID" : "CCPLOCATION",
          "urlLocationIcon" : "http://image.eveonline.com/Render/1529_64.png",
          "name" : "Hek - Hek",
          "securityValue" : 0.549668267074902,
          "fullLocation" : "[0.549668267074902] Hek - Metropolis > Hek",
          "realId" : -2,
          "citadel" : false,
          "unknown" : true
        },
        "qty" : 2674,
        "price" : 10000.0,
        "region" : "Metropolis",
        "security" : "0.549668267074902",
        "constellation" : "Barvigrard",
        "system" : "Hek"
      }
    },
    "sourceLocation" : {
      "jsonClass" : "EveLocation",
      "id" : 30002053,
      "stationID" : 30002053,
      "station" : "Hek",
      "systemID" : 30002053,
      "system" : "Hek",
      "constellationID" : 20000302,
      "constellation" : "Barvigrard",
      "regionID" : 10000042,
      "region" : "Metropolis",
      "security" : "0.549668267074902",
      "typeID" : "CCPLOCATION",
      "urlLocationIcon" : "http://image.eveonline.com/Render/1529_64.png",
      "name" : "Hek - Hek",
      "securityValue" : 0.549668267074902,
      "fullLocation" : "[0.549668267074902] Hek - Metropolis > Hek",
      "realId" : -2,
      "citadel" : false,
      "unknown" : true
    },
    "destination" : {
      "jsonClass" : "EveLocation",
      "id" : 60006526,
      "stationID" : 60006526,
      "station" : "Esescama VIII - Moon 3 - Imperial Armaments Warehouse",
      "systemID" : 30002964,
      "system" : "Esescama",
      "constellationID" : 20000434,
      "constellation" : "Ryra",
      "regionID" : 10000036,
      "region" : "Devoid",
      "security" : "0.612691959383857",
      "typeID" : "CCPLOCATION",
      "urlLocationIcon" : "http://image.eveonline.com/Render/1529_64.png",
      "name" : "Esescama - Esescama VIII - Moon 3 - Imperial Armaments Warehouse",
      "securityValue" : 0.612691959383857,
      "fullLocation" : "[0.612691959383857] Esescama VIII - Moon 3 - Imperial Armaments Warehouse - Devoid > Esescama",
      "realId" : -2,
      "citadel" : false,
      "unknown" : true
    },
    "referencedAsset" : null
  } ],
  "itemIndustryGroup" : "COMPONENTS",
  "expanded" : false,
  "renderWhenEmpty" : true
}, {
  "jsonClass" : "Action",
  "resource" : {
    "jsonClass" : "Resource",
    "item" : {
      "jsonClass" : "EveItem",
      "name" : "Occator",
      "groupId" : 380,
      "categoryId" : 6,
      "category" : "Ship",
      "baseprice" : 0.0,
      "defaultprice" : -1.0,
      "volume" : 390000.0,
      "tech" : "Tech II",
      "industryGroup" : "HULL",
      "typeId" : 12745,
      "price" : 8.662372741E7,
      "blueprint" : false,
      "itemId" : 12745,
      "itemID" : 12745,
      "hullGroup" : "industrial",
      "categoryName" : "Ship",
      "typeID" : 12745,
      "groupName" : "Deep Space Transport",
      "lowestSellerPrice" : {
        "location" : {
          "jsonClass" : "EveLocation",
          "id" : 30002187,
          "stationID" : 30002187,
          "station" : "Amarr",
          "systemID" : 30002187,
          "system" : "Amarr",
          "constellationID" : 20000322,
          "constellation" : "Throne Worlds",
          "regionID" : 10000043,
          "region" : "Domain",
          "security" : "1.0",
          "typeID" : "CCPLOCATION",
          "urlLocationIcon" : "http://image.eveonline.com/Render/1529_64.png",
          "name" : "Amarr - Amarr",
          "securityValue" : 1.0,
          "fullLocation" : "[1.0] Amarr - Domain > Amarr",
          "realId" : -2,
          "citadel" : false,
          "unknown" : true
        },
        "qty" : 11,
        "price" : 2.67111001E8,
        "region" : "Domain",
        "security" : "1.0",
        "constellation" : "Throne Worlds",
        "system" : "Amarr"
      },
      "highestBuyerPrice" : {
        "location" : {
          "jsonClass" : "EveLocation",
          "id" : 30002187,
          "stationID" : 30002187,
          "station" : "Amarr",
          "systemID" : 30002187,
          "system" : "Amarr",
          "constellationID" : 20000322,
          "constellation" : "Throne Worlds",
          "regionID" : 10000043,
          "region" : "Domain",
          "security" : "1.0",
          "typeID" : "CCPLOCATION",
          "urlLocationIcon" : "http://image.eveonline.com/Render/1529_64.png",
          "name" : "Amarr - Amarr",
          "securityValue" : 1.0,
          "fullLocation" : "[1.0] Amarr - Domain > Amarr",
          "realId" : -2,
          "citadel" : false,
          "unknown" : true
        },
        "qty" : 11,
        "price" : 2.67111001E8,
        "region" : "Domain",
        "security" : "1.0",
        "constellation" : "Throne Worlds",
        "system" : "Amarr"
      }
    },
    "baseQty" : 1,
    "stackSize" : 1,
    "damage" : 1.0,
    "name" : "Occator",
    "typeId" : 12745,
    "quantity" : 1,
    "category" : "Ship",
    "groupName" : "Deep Space Transport",
    "baseQuantity" : 1
  },
  "requestQty" : 1,
  "completedQty" : 0,
  "empty" : true,
  "priority" : 300,
  "typeId" : 12745,
  "price" : 8.662372741E7,
  "itemName" : "Occator",
  "category" : "Ship",
  "groupName" : "Deep Space Transport",
  "userAction" : null,
  "tasks" : [ {
    "jsonClass" : "EveTask",
    "taskType" : "BUY",
    "typeId" : 12745,
    "itemName" : "Occator",
    "price" : 2.67111001E8,
    "basePrice" : 0.0,
    "quantity" : 1,
    "item" : {
      "jsonClass" : "EveItem",
      "name" : "Occator",
      "groupId" : 380,
      "categoryId" : 6,
      "category" : "Ship",
      "baseprice" : 0.0,
      "defaultprice" : 8.662372741E7,
      "volume" : 390000.0,
      "tech" : "Tech II",
      "industryGroup" : "HULL",
      "typeId" : 12745,
      "price" : 8.662372741E7,
      "blueprint" : false,
      "itemId" : 12745,
      "itemID" : 12745,
      "hullGroup" : "industrial",
      "categoryName" : "Ship",
      "typeID" : 12745,
      "groupName" : "Deep Space Transport",
      "lowestSellerPrice" : {
        "location" : {
          "jsonClass" : "EveLocation",
          "id" : 30002187,
          "stationID" : 30002187,
          "station" : "Amarr",
          "systemID" : 30002187,
          "system" : "Amarr",
          "constellationID" : 20000322,
          "constellation" : "Throne Worlds",
          "regionID" : 10000043,
          "region" : "Domain",
          "security" : "1.0",
          "typeID" : "CCPLOCATION",
          "urlLocationIcon" : "http://image.eveonline.com/Render/1529_64.png",
          "name" : "Amarr - Amarr",
          "securityValue" : 1.0,
          "fullLocation" : "[1.0] Amarr - Domain > Amarr",
          "realId" : -2,
          "citadel" : false,
          "unknown" : true
        },
        "qty" : 11,
        "price" : 2.67111001E8,
        "region" : "Domain",
        "security" : "1.0",
        "constellation" : "Throne Worlds",
        "system" : "Amarr"
      },
      "highestBuyerPrice" : {
        "location" : {
          "jsonClass" : "EveLocation",
          "id" : 30002187,
          "stationID" : 30002187,
          "station" : "Amarr",
          "systemID" : 30002187,
          "system" : "Amarr",
          "constellationID" : 20000322,
          "constellation" : "Throne Worlds",
          "regionID" : 10000043,
          "region" : "Domain",
          "security" : "1.0",
          "typeID" : "CCPLOCATION",
          "urlLocationIcon" : "http://image.eveonline.com/Render/1529_64.png",
          "name" : "Amarr - Amarr",
          "securityValue" : 1.0,
          "fullLocation" : "[1.0] Amarr - Domain > Amarr",
          "realId" : -2,
          "citadel" : false,
          "unknown" : true
        },
        "qty" : 11,
        "price" : 2.67111001E8,
        "region" : "Domain",
        "security" : "1.0",
        "constellation" : "Throne Worlds",
        "system" : "Amarr"
      }
    },
    "sourceLocation" : {
      "jsonClass" : "EveLocation",
      "id" : 30002187,
      "stationID" : 30002187,
      "station" : "Amarr",
      "systemID" : 30002187,
      "system" : "Amarr",
      "constellationID" : 20000322,
      "constellation" : "Throne Worlds",
      "regionID" : 10000043,
      "region" : "Domain",
      "security" : "1.0",
      "typeID" : "CCPLOCATION",
      "urlLocationIcon" : "http://image.eveonline.com/Render/1529_64.png",
      "name" : "Amarr - Amarr",
      "securityValue" : 1.0,
      "fullLocation" : "[1.0] Amarr - Domain > Amarr",
      "realId" : -2,
      "citadel" : false,
      "unknown" : true
    },
    "destination" : {
      "jsonClass" : "EveLocation",
      "id" : 60006526,
      "stationID" : 60006526,
      "station" : "Esescama VIII - Moon 3 - Imperial Armaments Warehouse",
      "systemID" : 30002964,
      "system" : "Esescama",
      "constellationID" : 20000434,
      "constellation" : "Ryra",
      "regionID" : 10000036,
      "region" : "Devoid",
      "security" : "0.612691959383857",
      "typeID" : "CCPLOCATION",
      "urlLocationIcon" : "http://image.eveonline.com/Render/1529_64.png",
      "name" : "Esescama - Esescama VIII - Moon 3 - Imperial Armaments Warehouse",
      "securityValue" : 0.612691959383857,
      "fullLocation" : "[0.612691959383857] Esescama VIII - Moon 3 - Imperial Armaments Warehouse - Devoid > Esescama",
      "realId" : -2,
      "citadel" : false,
      "unknown" : true
    },
    "referencedAsset" : null
  } ],
  "itemIndustryGroup" : "HULL",
  "expanded" : false,
  "renderWhenEmpty" : true
}, {
  "jsonClass" : "Action",
  "resource" : {
    "jsonClass" : "Resource",
    "item" : {
      "jsonClass" : "EveItem",
      "name" : "Improved Cloaking Device II",
      "groupId" : 330,
      "categoryId" : 7,
      "category" : "Module",
      "baseprice" : 1130360.0,
      "defaultprice" : -1.0,
      "volume" : 100.0,
      "tech" : "Tech II",
      "industryGroup" : "COMPONENTS",
      "typeId" : 11577,
      "price" : 3882132.79,
      "blueprint" : false,
      "itemId" : 11577,
      "itemID" : 11577,
      "hullGroup" : "not-applies",
      "categoryName" : "Module",
      "typeID" : 11577,
      "groupName" : "Cloaking Device",
      "lowestSellerPrice" : {
        "location" : {
          "jsonClass" : "EveLocation",
          "id" : 30002187,
          "stationID" : 30002187,
          "station" : "Amarr",
          "systemID" : 30002187,
          "system" : "Amarr",
          "constellationID" : 20000322,
          "constellation" : "Throne Worlds",
          "regionID" : 10000043,
          "region" : "Domain",
          "security" : "1.0",
          "typeID" : "CCPLOCATION",
          "urlLocationIcon" : "http://image.eveonline.com/Render/1529_64.png",
          "name" : "Amarr - Amarr",
          "securityValue" : 1.0,
          "fullLocation" : "[1.0] Amarr - Domain > Amarr",
          "realId" : -2,
          "citadel" : false,
          "unknown" : true
        },
        "qty" : 217,
        "price" : 3350111.0,
        "region" : "Domain",
        "security" : "1.0",
        "constellation" : "Throne Worlds",
        "system" : "Amarr"
      },
      "highestBuyerPrice" : {
        "location" : {
          "jsonClass" : "EveLocation",
          "id" : 30002187,
          "stationID" : 30002187,
          "station" : "Amarr",
          "systemID" : 30002187,
          "system" : "Amarr",
          "constellationID" : 20000322,
          "constellation" : "Throne Worlds",
          "regionID" : 10000043,
          "region" : "Domain",
          "security" : "1.0",
          "typeID" : "CCPLOCATION",
          "urlLocationIcon" : "http://image.eveonline.com/Render/1529_64.png",
          "name" : "Amarr - Amarr",
          "securityValue" : 1.0,
          "fullLocation" : "[1.0] Amarr - Domain > Amarr",
          "realId" : -2,
          "citadel" : false,
          "unknown" : true
        },
        "qty" : 217,
        "price" : 3350111.0,
        "region" : "Domain",
        "security" : "1.0",
        "constellation" : "Throne Worlds",
        "system" : "Amarr"
      }
    },
    "baseQty" : 1,
    "stackSize" : 1,
    "damage" : 1.0,
    "name" : "Improved Cloaking Device II",
    "typeId" : 11577,
    "quantity" : 1,
    "category" : "Module",
    "groupName" : "Cloaking Device",
    "baseQuantity" : 1
  },
  "requestQty" : 1,
  "completedQty" : 0,
  "empty" : true,
  "priority" : 300,
  "typeId" : 11577,
  "price" : 3882132.79,
  "itemName" : "Improved Cloaking Device II",
  "category" : "Module",
  "groupName" : "Cloaking Device",
  "userAction" : null,
  "tasks" : [ {
    "jsonClass" : "EveTask",
    "taskType" : "BUY",
    "typeId" : 11577,
    "itemName" : "Improved Cloaking Device II",
    "price" : 3350111.0,
    "basePrice" : 1130360.0,
    "quantity" : 1,
    "item" : {
      "jsonClass" : "EveItem",
      "name" : "Improved Cloaking Device II",
      "groupId" : 330,
      "categoryId" : 7,
      "category" : "Module",
      "baseprice" : 1130360.0,
      "defaultprice" : 3882132.79,
      "volume" : 100.0,
      "tech" : "Tech II",
      "industryGroup" : "COMPONENTS",
      "typeId" : 11577,
      "price" : 3882132.79,
      "blueprint" : false,
      "itemId" : 11577,
      "itemID" : 11577,
      "hullGroup" : "not-applies",
      "categoryName" : "Module",
      "typeID" : 11577,
      "groupName" : "Cloaking Device",
      "lowestSellerPrice" : {
        "location" : {
          "jsonClass" : "EveLocation",
          "id" : 30002187,
          "stationID" : 30002187,
          "station" : "Amarr",
          "systemID" : 30002187,
          "system" : "Amarr",
          "constellationID" : 20000322,
          "constellation" : "Throne Worlds",
          "regionID" : 10000043,
          "region" : "Domain",
          "security" : "1.0",
          "typeID" : "CCPLOCATION",
          "urlLocationIcon" : "http://image.eveonline.com/Render/1529_64.png",
          "name" : "Amarr - Amarr",
          "securityValue" : 1.0,
          "fullLocation" : "[1.0] Amarr - Domain > Amarr",
          "realId" : -2,
          "citadel" : false,
          "unknown" : true
        },
        "qty" : 217,
        "price" : 3350111.0,
        "region" : "Domain",
        "security" : "1.0",
        "constellation" : "Throne Worlds",
        "system" : "Amarr"
      },
      "highestBuyerPrice" : {
        "location" : {
          "jsonClass" : "EveLocation",
          "id" : 30002187,
          "stationID" : 30002187,
          "station" : "Amarr",
          "systemID" : 30002187,
          "system" : "Amarr",
          "constellationID" : 20000322,
          "constellation" : "Throne Worlds",
          "regionID" : 10000043,
          "region" : "Domain",
          "security" : "1.0",
          "typeID" : "CCPLOCATION",
          "urlLocationIcon" : "http://image.eveonline.com/Render/1529_64.png",
          "name" : "Amarr - Amarr",
          "securityValue" : 1.0,
          "fullLocation" : "[1.0] Amarr - Domain > Amarr",
          "realId" : -2,
          "citadel" : false,
          "unknown" : true
        },
        "qty" : 217,
        "price" : 3350111.0,
        "region" : "Domain",
        "security" : "1.0",
        "constellation" : "Throne Worlds",
        "system" : "Amarr"
      }
    },
    "sourceLocation" : {
      "jsonClass" : "EveLocation",
      "id" : 30002187,
      "stationID" : 30002187,
      "station" : "Amarr",
      "systemID" : 30002187,
      "system" : "Amarr",
      "constellationID" : 20000322,
      "constellation" : "Throne Worlds",
      "regionID" : 10000043,
      "region" : "Domain",
      "security" : "1.0",
      "typeID" : "CCPLOCATION",
      "urlLocationIcon" : "http://image.eveonline.com/Render/1529_64.png",
      "name" : "Amarr - Amarr",
      "securityValue" : 1.0,
      "fullLocation" : "[1.0] Amarr - Domain > Amarr",
      "realId" : -2,
      "citadel" : false,
      "unknown" : true
    },
    "destination" : {
      "jsonClass" : "EveLocation",
      "id" : 60006526,
      "stationID" : 60006526,
      "station" : "Esescama VIII - Moon 3 - Imperial Armaments Warehouse",
      "systemID" : 30002964,
      "system" : "Esescama",
      "constellationID" : 20000434,
      "constellation" : "Ryra",
      "regionID" : 10000036,
      "region" : "Devoid",
      "security" : "0.612691959383857",
      "typeID" : "CCPLOCATION",
      "urlLocationIcon" : "http://image.eveonline.com/Render/1529_64.png",
      "name" : "Esescama - Esescama VIII - Moon 3 - Imperial Armaments Warehouse",
      "securityValue" : 0.612691959383857,
      "fullLocation" : "[0.612691959383857] Esescama VIII - Moon 3 - Imperial Armaments Warehouse - Devoid > Esescama",
      "realId" : -2,
      "citadel" : false,
      "unknown" : true
    },
    "referencedAsset" : null
  } ],
  "itemIndustryGroup" : "COMPONENTS",
  "expanded" : false,
  "renderWhenEmpty" : true
}, {
  "jsonClass" : "Action",
  "resource" : {
    "jsonClass" : "Resource",
    "item" : {
      "jsonClass" : "EveItem",
      "name" : "Armor EM Hardener II",
      "groupId" : 328,
      "categoryId" : 7,
      "category" : "Module",
      "baseprice" : 0.0,
      "defaultprice" : -1.0,
      "volume" : 5.0,
      "tech" : "Tech II",
      "industryGroup" : "COMPONENTS",
      "typeId" : 11642,
      "price" : 1460917.33,
      "blueprint" : false,
      "itemId" : 11642,
      "itemID" : 11642,
      "hullGroup" : "not-applies",
      "categoryName" : "Module",
      "typeID" : 11642,
      "groupName" : "Armor Hardener",
      "lowestSellerPrice" : {
        "location" : {
          "jsonClass" : "EveLocation",
          "id" : 30000142,
          "stationID" : 30000142,
          "station" : "Jita",
          "systemID" : 30000142,
          "system" : "Jita",
          "constellationID" : 20000020,
          "constellation" : "Kimotoro",
          "regionID" : 10000002,
          "region" : "The Forge",
          "security" : "0.945913116664839",
          "typeID" : "CCPLOCATION",
          "urlLocationIcon" : "http://image.eveonline.com/Render/1529_64.png",
          "name" : "Jita - Jita",
          "securityValue" : 0.945913116664839,
          "fullLocation" : "[0.945913116664839] Jita - The Forge > Jita",
          "realId" : -2,
          "citadel" : false,
          "unknown" : true
        },
        "qty" : 396,
        "price" : 1290011.0,
        "region" : "The Forge",
        "security" : "0.945913116664839",
        "constellation" : "Kimotoro",
        "system" : "Jita"
      },
      "highestBuyerPrice" : {
        "location" : {
          "jsonClass" : "EveLocation",
          "id" : 30000142,
          "stationID" : 30000142,
          "station" : "Jita",
          "systemID" : 30000142,
          "system" : "Jita",
          "constellationID" : 20000020,
          "constellation" : "Kimotoro",
          "regionID" : 10000002,
          "region" : "The Forge",
          "security" : "0.945913116664839",
          "typeID" : "CCPLOCATION",
          "urlLocationIcon" : "http://image.eveonline.com/Render/1529_64.png",
          "name" : "Jita - Jita",
          "securityValue" : 0.945913116664839,
          "fullLocation" : "[0.945913116664839] Jita - The Forge > Jita",
          "realId" : -2,
          "citadel" : false,
          "unknown" : true
        },
        "qty" : 396,
        "price" : 1290011.0,
        "region" : "The Forge",
        "security" : "0.945913116664839",
        "constellation" : "Kimotoro",
        "system" : "Jita"
      }
    },
    "baseQty" : 1,
    "stackSize" : 1,
    "damage" : 1.0,
    "name" : "Armor EM Hardener II",
    "typeId" : 11642,
    "quantity" : 1,
    "category" : "Module",
    "groupName" : "Armor Hardener",
    "baseQuantity" : 1
  },
  "requestQty" : 1,
  "completedQty" : 0,
  "empty" : true,
  "priority" : 300,
  "typeId" : 11642,
  "price" : 1460917.33,
  "itemName" : "Armor EM Hardener II",
  "category" : "Module",
  "groupName" : "Armor Hardener",
  "userAction" : null,
  "tasks" : [ {
    "jsonClass" : "EveTask",
    "taskType" : "BUY",
    "typeId" : 11642,
    "itemName" : "Armor EM Hardener II",
    "price" : 1290011.0,
    "basePrice" : 0.0,
    "quantity" : 1,
    "item" : {
      "jsonClass" : "EveItem",
      "name" : "Armor EM Hardener II",
      "groupId" : 328,
      "categoryId" : 7,
      "category" : "Module",
      "baseprice" : 0.0,
      "defaultprice" : 1460917.33,
      "volume" : 5.0,
      "tech" : "Tech II",
      "industryGroup" : "COMPONENTS",
      "typeId" : 11642,
      "price" : 1460917.33,
      "blueprint" : false,
      "itemId" : 11642,
      "itemID" : 11642,
      "hullGroup" : "not-applies",
      "categoryName" : "Module",
      "typeID" : 11642,
      "groupName" : "Armor Hardener",
      "lowestSellerPrice" : {
        "location" : {
          "jsonClass" : "EveLocation",
          "id" : 30000142,
          "stationID" : 30000142,
          "station" : "Jita",
          "systemID" : 30000142,
          "system" : "Jita",
          "constellationID" : 20000020,
          "constellation" : "Kimotoro",
          "regionID" : 10000002,
          "region" : "The Forge",
          "security" : "0.945913116664839",
          "typeID" : "CCPLOCATION",
          "urlLocationIcon" : "http://image.eveonline.com/Render/1529_64.png",
          "name" : "Jita - Jita",
          "securityValue" : 0.945913116664839,
          "fullLocation" : "[0.945913116664839] Jita - The Forge > Jita",
          "realId" : -2,
          "citadel" : false,
          "unknown" : true
        },
        "qty" : 396,
        "price" : 1290011.0,
        "region" : "The Forge",
        "security" : "0.945913116664839",
        "constellation" : "Kimotoro",
        "system" : "Jita"
      },
      "highestBuyerPrice" : {
        "location" : {
          "jsonClass" : "EveLocation",
          "id" : 30000142,
          "stationID" : 30000142,
          "station" : "Jita",
          "systemID" : 30000142,
          "system" : "Jita",
          "constellationID" : 20000020,
          "constellation" : "Kimotoro",
          "regionID" : 10000002,
          "region" : "The Forge",
          "security" : "0.945913116664839",
          "typeID" : "CCPLOCATION",
          "urlLocationIcon" : "http://image.eveonline.com/Render/1529_64.png",
          "name" : "Jita - Jita",
          "securityValue" : 0.945913116664839,
          "fullLocation" : "[0.945913116664839] Jita - The Forge > Jita",
          "realId" : -2,
          "citadel" : false,
          "unknown" : true
        },
        "qty" : 396,
        "price" : 1290011.0,
        "region" : "The Forge",
        "security" : "0.945913116664839",
        "constellation" : "Kimotoro",
        "system" : "Jita"
      }
    },
    "sourceLocation" : {
      "jsonClass" : "EveLocation",
      "id" : 30000142,
      "stationID" : 30000142,
      "station" : "Jita",
      "systemID" : 30000142,
      "system" : "Jita",
      "constellationID" : 20000020,
      "constellation" : "Kimotoro",
      "regionID" : 10000002,
      "region" : "The Forge",
      "security" : "0.945913116664839",
      "typeID" : "CCPLOCATION",
      "urlLocationIcon" : "http://image.eveonline.com/Render/1529_64.png",
      "name" : "Jita - Jita",
      "securityValue" : 0.945913116664839,
      "fullLocation" : "[0.945913116664839] Jita - The Forge > Jita",
      "realId" : -2,
      "citadel" : false,
      "unknown" : true
    },
    "destination" : {
      "jsonClass" : "EveLocation",
      "id" : 60006526,
      "stationID" : 60006526,
      "station" : "Esescama VIII - Moon 3 - Imperial Armaments Warehouse",
      "systemID" : 30002964,
      "system" : "Esescama",
      "constellationID" : 20000434,
      "constellation" : "Ryra",
      "regionID" : 10000036,
      "region" : "Devoid",
      "security" : "0.612691959383857",
      "typeID" : "CCPLOCATION",
      "urlLocationIcon" : "http://image.eveonline.com/Render/1529_64.png",
      "name" : "Esescama - Esescama VIII - Moon 3 - Imperial Armaments Warehouse",
      "securityValue" : 0.612691959383857,
      "fullLocation" : "[0.612691959383857] Esescama VIII - Moon 3 - Imperial Armaments Warehouse - Devoid > Esescama",
      "realId" : -2,
      "citadel" : false,
      "unknown" : true
    },
    "referencedAsset" : null
  } ],
  "itemIndustryGroup" : "COMPONENTS",
  "expanded" : false,
  "renderWhenEmpty" : true
}, {
  "jsonClass" : "Action",
  "resource" : {
    "jsonClass" : "Resource",
    "item" : {
      "jsonClass" : "EveItem",
      "name" : "Medium Micro Jump Drive",
      "groupId" : 1189,
      "categoryId" : 7,
      "category" : "Module",
      "baseprice" : 340852.0,
      "defaultprice" : -1.0,
      "volume" : 10.0,
      "tech" : "Tech I",
      "industryGroup" : "COMPONENTS",
      "typeId" : 33915,
      "price" : 372659.84,
      "blueprint" : false,
      "itemId" : 33915,
      "itemID" : 33915,
      "hullGroup" : "not-applies",
      "categoryName" : "Module",
      "typeID" : 33915,
      "groupName" : "Micro Jump Drive",
      "lowestSellerPrice" : {
        "location" : {
          "jsonClass" : "EveLocation",
          "id" : 30002187,
          "stationID" : 30002187,
          "station" : "Amarr",
          "systemID" : 30002187,
          "system" : "Amarr",
          "constellationID" : 20000322,
          "constellation" : "Throne Worlds",
          "regionID" : 10000043,
          "region" : "Domain",
          "security" : "1.0",
          "typeID" : "CCPLOCATION",
          "urlLocationIcon" : "http://image.eveonline.com/Render/1529_64.png",
          "name" : "Amarr - Amarr",
          "securityValue" : 1.0,
          "fullLocation" : "[1.0] Amarr - Domain > Amarr",
          "realId" : -2,
          "citadel" : false,
          "unknown" : true
        },
        "qty" : 1454,
        "price" : 205074.0,
        "region" : "Domain",
        "security" : "1.0",
        "constellation" : "Throne Worlds",
        "system" : "Amarr"
      },
      "highestBuyerPrice" : {
        "location" : {
          "jsonClass" : "EveLocation",
          "id" : 30002187,
          "stationID" : 30002187,
          "station" : "Amarr",
          "systemID" : 30002187,
          "system" : "Amarr",
          "constellationID" : 20000322,
          "constellation" : "Throne Worlds",
          "regionID" : 10000043,
          "region" : "Domain",
          "security" : "1.0",
          "typeID" : "CCPLOCATION",
          "urlLocationIcon" : "http://image.eveonline.com/Render/1529_64.png",
          "name" : "Amarr - Amarr",
          "securityValue" : 1.0,
          "fullLocation" : "[1.0] Amarr - Domain > Amarr",
          "realId" : -2,
          "citadel" : false,
          "unknown" : true
        },
        "qty" : 1454,
        "price" : 205074.0,
        "region" : "Domain",
        "security" : "1.0",
        "constellation" : "Throne Worlds",
        "system" : "Amarr"
      }
    },
    "baseQty" : 1,
    "stackSize" : 1,
    "damage" : 1.0,
    "name" : "Medium Micro Jump Drive",
    "typeId" : 33915,
    "quantity" : 1,
    "category" : "Module",
    "groupName" : "Micro Jump Drive",
    "baseQuantity" : 1
  },
  "requestQty" : 1,
  "completedQty" : 0,
  "empty" : true,
  "priority" : 300,
  "typeId" : 33915,
  "price" : 372659.84,
  "itemName" : "Medium Micro Jump Drive",
  "category" : "Module",
  "groupName" : "Micro Jump Drive",
  "userAction" : null,
  "tasks" : [ {
    "jsonClass" : "EveTask",
    "taskType" : "BUYCOVERED",
    "typeId" : 33915,
    "itemName" : "Medium Micro Jump Drive",
    "price" : 205074.0,
    "basePrice" : 340852.0,
    "quantity" : 1,
    "item" : {
      "jsonClass" : "EveItem",
      "name" : "Medium Micro Jump Drive",
      "groupId" : 1189,
      "categoryId" : 7,
      "category" : "Module",
      "baseprice" : 340852.0,
      "defaultprice" : 372659.84,
      "volume" : 10.0,
      "tech" : "Tech I",
      "industryGroup" : "COMPONENTS",
      "typeId" : 33915,
      "price" : 372659.84,
      "blueprint" : false,
      "itemId" : 33915,
      "itemID" : 33915,
      "hullGroup" : "not-applies",
      "categoryName" : "Module",
      "typeID" : 33915,
      "groupName" : "Micro Jump Drive",
      "lowestSellerPrice" : {
        "location" : {
          "jsonClass" : "EveLocation",
          "id" : 30002187,
          "stationID" : 30002187,
          "station" : "Amarr",
          "systemID" : 30002187,
          "system" : "Amarr",
          "constellationID" : 20000322,
          "constellation" : "Throne Worlds",
          "regionID" : 10000043,
          "region" : "Domain",
          "security" : "1.0",
          "typeID" : "CCPLOCATION",
          "urlLocationIcon" : "http://image.eveonline.com/Render/1529_64.png",
          "name" : "Amarr - Amarr",
          "securityValue" : 1.0,
          "fullLocation" : "[1.0] Amarr - Domain > Amarr",
          "realId" : -2,
          "citadel" : false,
          "unknown" : true
        },
        "qty" : 1454,
        "price" : 205074.0,
        "region" : "Domain",
        "security" : "1.0",
        "constellation" : "Throne Worlds",
        "system" : "Amarr"
      },
      "highestBuyerPrice" : {
        "location" : {
          "jsonClass" : "EveLocation",
          "id" : 30002187,
          "stationID" : 30002187,
          "station" : "Amarr",
          "systemID" : 30002187,
          "system" : "Amarr",
          "constellationID" : 20000322,
          "constellation" : "Throne Worlds",
          "regionID" : 10000043,
          "region" : "Domain",
          "security" : "1.0",
          "typeID" : "CCPLOCATION",
          "urlLocationIcon" : "http://image.eveonline.com/Render/1529_64.png",
          "name" : "Amarr - Amarr",
          "securityValue" : 1.0,
          "fullLocation" : "[1.0] Amarr - Domain > Amarr",
          "realId" : -2,
          "citadel" : false,
          "unknown" : true
        },
        "qty" : 1454,
        "price" : 205074.0,
        "region" : "Domain",
        "security" : "1.0",
        "constellation" : "Throne Worlds",
        "system" : "Amarr"
      }
    },
    "sourceLocation" : {
      "jsonClass" : "EveLocation",
      "id" : 30002187,
      "stationID" : 30002187,
      "station" : "Amarr",
      "systemID" : 30002187,
      "system" : "Amarr",
      "constellationID" : 20000322,
      "constellation" : "Throne Worlds",
      "regionID" : 10000043,
      "region" : "Domain",
      "security" : "1.0",
      "typeID" : "CCPLOCATION",
      "urlLocationIcon" : "http://image.eveonline.com/Render/1529_64.png",
      "name" : "Amarr - Amarr",
      "securityValue" : 1.0,
      "fullLocation" : "[1.0] Amarr - Domain > Amarr",
      "realId" : -2,
      "citadel" : false,
      "unknown" : true
    },
    "destination" : {
      "jsonClass" : "EveLocation",
      "id" : 60006526,
      "stationID" : 60006526,
      "station" : "Esescama VIII - Moon 3 - Imperial Armaments Warehouse",
      "systemID" : 30002964,
      "system" : "Esescama",
      "constellationID" : 20000434,
      "constellation" : "Ryra",
      "regionID" : 10000036,
      "region" : "Devoid",
      "security" : "0.612691959383857",
      "typeID" : "CCPLOCATION",
      "urlLocationIcon" : "http://image.eveonline.com/Render/1529_64.png",
      "name" : "Esescama - Esescama VIII - Moon 3 - Imperial Armaments Warehouse",
      "securityValue" : 0.612691959383857,
      "fullLocation" : "[0.612691959383857] Esescama VIII - Moon 3 - Imperial Armaments Warehouse - Devoid > Esescama",
      "realId" : -2,
      "citadel" : false,
      "unknown" : true
    },
    "referencedAsset" : null
  } ],
  "itemIndustryGroup" : "COMPONENTS",
  "expanded" : false,
  "renderWhenEmpty" : true
}, {
  "jsonClass" : "Action",
  "resource" : {
    "jsonClass" : "Resource",
    "item" : {
      "jsonClass" : "EveItem",
      "name" : "Nanofiber Internal Structure II",
      "groupId" : 763,
      "categoryId" : 7,
      "category" : "Module",
      "baseprice" : 0.0,
      "defaultprice" : -1.0,
      "volume" : 5.0,
      "tech" : "Tech II",
      "industryGroup" : "COMPONENTS",
      "typeId" : 2605,
      "price" : 427523.62,
      "blueprint" : false,
      "itemId" : 2605,
      "itemID" : 2605,
      "hullGroup" : "not-applies",
      "categoryName" : "Module",
      "typeID" : 2605,
      "groupName" : "Nanofiber Internal Structure",
      "lowestSellerPrice" : {
        "location" : {
          "jsonClass" : "EveLocation",
          "id" : 30002187,
          "stationID" : 30002187,
          "station" : "Amarr",
          "systemID" : 30002187,
          "system" : "Amarr",
          "constellationID" : 20000322,
          "constellation" : "Throne Worlds",
          "regionID" : 10000043,
          "region" : "Domain",
          "security" : "1.0",
          "typeID" : "CCPLOCATION",
          "urlLocationIcon" : "http://image.eveonline.com/Render/1529_64.png",
          "name" : "Amarr - Amarr",
          "securityValue" : 1.0,
          "fullLocation" : "[1.0] Amarr - Domain > Amarr",
          "realId" : -2,
          "citadel" : false,
          "unknown" : true
        },
        "qty" : 396,
        "price" : 460144.0,
        "region" : "Domain",
        "security" : "1.0",
        "constellation" : "Throne Worlds",
        "system" : "Amarr"
      },
      "highestBuyerPrice" : {
        "location" : {
          "jsonClass" : "EveLocation",
          "id" : 30002187,
          "stationID" : 30002187,
          "station" : "Amarr",
          "systemID" : 30002187,
          "system" : "Amarr",
          "constellationID" : 20000322,
          "constellation" : "Throne Worlds",
          "regionID" : 10000043,
          "region" : "Domain",
          "security" : "1.0",
          "typeID" : "CCPLOCATION",
          "urlLocationIcon" : "http://image.eveonline.com/Render/1529_64.png",
          "name" : "Amarr - Amarr",
          "securityValue" : 1.0,
          "fullLocation" : "[1.0] Amarr - Domain > Amarr",
          "realId" : -2,
          "citadel" : false,
          "unknown" : true
        },
        "qty" : 396,
        "price" : 460144.0,
        "region" : "Domain",
        "security" : "1.0",
        "constellation" : "Throne Worlds",
        "system" : "Amarr"
      }
    },
    "baseQty" : 2,
    "stackSize" : 1,
    "damage" : 1.0,
    "name" : "Nanofiber Internal Structure II",
    "typeId" : 2605,
    "quantity" : 2,
    "category" : "Module",
    "groupName" : "Nanofiber Internal Structure",
    "baseQuantity" : 2
  },
  "requestQty" : 2,
  "completedQty" : 0,
  "empty" : true,
  "priority" : 300,
  "typeId" : 2605,
  "price" : 427523.62,
  "itemName" : "Nanofiber Internal Structure II",
  "category" : "Module",
  "groupName" : "Nanofiber Internal Structure",
  "userAction" : null,
  "tasks" : [ {
    "jsonClass" : "EveTask",
    "taskType" : "BUY",
    "typeId" : 2605,
    "itemName" : "Nanofiber Internal Structure II",
    "price" : 460144.0,
    "basePrice" : 0.0,
    "quantity" : 2,
    "item" : {
      "jsonClass" : "EveItem",
      "name" : "Nanofiber Internal Structure II",
      "groupId" : 763,
      "categoryId" : 7,
      "category" : "Module",
      "baseprice" : 0.0,
      "defaultprice" : 427523.62,
      "volume" : 5.0,
      "tech" : "Tech II",
      "industryGroup" : "COMPONENTS",
      "typeId" : 2605,
      "price" : 427523.62,
      "blueprint" : false,
      "itemId" : 2605,
      "itemID" : 2605,
      "hullGroup" : "not-applies",
      "categoryName" : "Module",
      "typeID" : 2605,
      "groupName" : "Nanofiber Internal Structure",
      "lowestSellerPrice" : {
        "location" : {
          "jsonClass" : "EveLocation",
          "id" : 30002187,
          "stationID" : 30002187,
          "station" : "Amarr",
          "systemID" : 30002187,
          "system" : "Amarr",
          "constellationID" : 20000322,
          "constellation" : "Throne Worlds",
          "regionID" : 10000043,
          "region" : "Domain",
          "security" : "1.0",
          "typeID" : "CCPLOCATION",
          "urlLocationIcon" : "http://image.eveonline.com/Render/1529_64.png",
          "name" : "Amarr - Amarr",
          "securityValue" : 1.0,
          "fullLocation" : "[1.0] Amarr - Domain > Amarr",
          "realId" : -2,
          "citadel" : false,
          "unknown" : true
        },
        "qty" : 396,
        "price" : 460144.0,
        "region" : "Domain",
        "security" : "1.0",
        "constellation" : "Throne Worlds",
        "system" : "Amarr"
      },
      "highestBuyerPrice" : {
        "location" : {
          "jsonClass" : "EveLocation",
          "id" : 30002187,
          "stationID" : 30002187,
          "station" : "Amarr",
          "systemID" : 30002187,
          "system" : "Amarr",
          "constellationID" : 20000322,
          "constellation" : "Throne Worlds",
          "regionID" : 10000043,
          "region" : "Domain",
          "security" : "1.0",
          "typeID" : "CCPLOCATION",
          "urlLocationIcon" : "http://image.eveonline.com/Render/1529_64.png",
          "name" : "Amarr - Amarr",
          "securityValue" : 1.0,
          "fullLocation" : "[1.0] Amarr - Domain > Amarr",
          "realId" : -2,
          "citadel" : false,
          "unknown" : true
        },
        "qty" : 396,
        "price" : 460144.0,
        "region" : "Domain",
        "security" : "1.0",
        "constellation" : "Throne Worlds",
        "system" : "Amarr"
      }
    },
    "sourceLocation" : {
      "jsonClass" : "EveLocation",
      "id" : 30002187,
      "stationID" : 30002187,
      "station" : "Amarr",
      "systemID" : 30002187,
      "system" : "Amarr",
      "constellationID" : 20000322,
      "constellation" : "Throne Worlds",
      "regionID" : 10000043,
      "region" : "Domain",
      "security" : "1.0",
      "typeID" : "CCPLOCATION",
      "urlLocationIcon" : "http://image.eveonline.com/Render/1529_64.png",
      "name" : "Amarr - Amarr",
      "securityValue" : 1.0,
      "fullLocation" : "[1.0] Amarr - Domain > Amarr",
      "realId" : -2,
      "citadel" : false,
      "unknown" : true
    },
    "destination" : {
      "jsonClass" : "EveLocation",
      "id" : 60006526,
      "stationID" : 60006526,
      "station" : "Esescama VIII - Moon 3 - Imperial Armaments Warehouse",
      "systemID" : 30002964,
      "system" : "Esescama",
      "constellationID" : 20000434,
      "constellation" : "Ryra",
      "regionID" : 10000036,
      "region" : "Devoid",
      "security" : "0.612691959383857",
      "typeID" : "CCPLOCATION",
      "urlLocationIcon" : "http://image.eveonline.com/Render/1529_64.png",
      "name" : "Esescama - Esescama VIII - Moon 3 - Imperial Armaments Warehouse",
      "securityValue" : 0.612691959383857,
      "fullLocation" : "[0.612691959383857] Esescama VIII - Moon 3 - Imperial Armaments Warehouse - Devoid > Esescama",
      "realId" : -2,
      "citadel" : false,
      "unknown" : true
    },
    "referencedAsset" : null
  } ],
  "itemIndustryGroup" : "COMPONENTS",
  "expanded" : false,
  "renderWhenEmpty" : true
} ]