{
  "jsonClass": "EveItem",
  "name": "Nocxium",
  "groupId": 18,
  "categoryId": 4,
  "category": "Material",
  "baseprice": 512.0,
  "defaultprice": -1.0,
  "volume": 0.01,
  "tech": "Tech I",
  "industryGroup": "REFINEDMATERIAL",
  "typeId": 38,
  "groupName": "Mineral",
  "price": 287.67,
  "lowestSellerPrice": {
    "location": {
      "recordid": -2,
      "id": 30000142,
      "stationId": 30000142,
      "station": "Jita",
      "systemId": 30000142,
      "system": "Jita",
      "constellationId": 20000020,
      "constellation": "Kimotoro",
      "regionId": 10000002,
      "region": "The Forge",
      "security": 0.945913116664839,
      "typeId": "CCPLOCATION",
      "urlLocationIcon": "http://image.eveonline.com/Render/-2_64.png"
    },
    "qty": 100000,
    "price": 301.0,
    "region": "The Forge",
    "system": "Jita",
    "constellation": "Kimotoro",
    "security": "0.945913116664839"
  },
  "categoryName": "Material",
  "itemId": 38,
  "highestBuyerPrice": {
    "location": {
      "recordid": -2,
      "id": 30000142,
      "stationId": 30000142,
      "station": "Jita",
      "systemId": 30000142,
      "system": "Jita",
      "constellationId": 20000020,
      "constellation": "Kimotoro",
      "regionId": 10000002,
      "region": "The Forge",
      "security": 0.945913116664839,
      "typeId": "CCPLOCATION",
      "urlLocationIcon": "http://image.eveonline.com/Render/-2_64.png"
    },
    "qty": 100000,
    "price": 301.0,
    "region": "The Forge",
    "system": "Jita",
    "constellation": "Kimotoro",
    "security": "0.945913116664839"
  },
  "blueprint": false,
  "itemID": 38,
  "typeID": 38,
  "hullGroup": "not-applies"
}
