{
  "characterId": 90475644,
  "name": "Lady Risotto",
  "corporation": {
    "corporationId": 1427661573,
    "name": "Planet - Express",
    "ticker": "PLAM",
    "memberCount": 43,
    "taxRate": 0,
    "creatorId": 977174846,
    "description": "<font size=\"12\" color=\"#bfffffff\"></font><font size=\"18\" color=\"#ff00ff00\">N</font><font size=\"18\" color=\"#ffff0000\">R</font><font size=\"18\" color=\"#ff00ff00\">DS<br><br></font><font size=\"12\" color=\"#ffffff00\">Our crew is replaceable. Your package not!<br>The pizza will be great, just a few more minutes ... and it will be delivered.<br><br><br></font><font size=\"12\" color=\"#ffffa600\"><a href=\"http://www.silentinfinity.com/posterart/\">AFK POSTER ART</a></font><font size=\"12\" color=\"#ffffff00\"> </font>",
    "dateFounded": "2009-06-13T09:25:00Z",
    "url": "http://",
    "shares": 1000,
    "url4Icon": "http://image.eveonline.com/Corporation/1427661573_256.png",
    "homeStation": {
      "jsonClass": "EveLocation",
      "id": 60006610,
      "stationID": 60006610,
      "station": "Esa VIII - Moon 2 - Viziam Warehouse",
      "systemID": 30001736,
      "system": "Esa",
      "constellationID": 20000257,
      "constellation": "Peges",
      "regionID": 10000020,
      "region": "Tash-Murkon",
      "security": "0.757320250704002",
      "typeID": "CCPLOCATION",
      "urlLocationIcon": "http://image.eveonline.com/Render/1529_64.png",
      "name": "Esa - Esa VIII - Moon 2 - Viziam Warehouse",
      "securityValue": 0.757320250704002,
      "citadel": false,
      "unknown": true,
      "fullLocation": "[0.757320250704002] Esa VIII - Moon 2 - Viziam Warehouse - Tash-Murkon > Esa",
      "realId": -2
    },
    "alliance": {
      "allianceId": 117383987,
      "name": "Silent Infinity",
      "ticker": "AFK",
      "creatorId": 687770098,
      "creatorCorporationId": 1930163623,
      "date_founded": "2010-09-30T20:47:00Z",
      "executor_corporation_id": 1930163623,
      "url4Icon": "http://image.eveonline.com/Alliance/117383987_128.png"
    },
    "ceo": 977174846
  },
  "birthday": "2011-02-26T17:46:00Z",
  "gender": "female",
  "race": {
    "race_id": 1,
    "name": "Caldari",
    "description": "Founded on the tenets of patriotism and hard work that carried its ancestors through hardships on an inhospitable homeworld, the Caldari State is today a corporate dictatorship, led by rulers who are determined to see it return to the meritocratic ideals of old. Ruthless and efficient in the boardroom as well as on the battlefield, the Caldari are living emblems of strength, persistence, and dignity.",
    "alliance_id": 500001
  },
  "bloodline": {
    "bloodline_id": 11,
    "name": "Achura",
    "description": "Achura has been part of the Caldari State for three centuries, and yet their culture has always remained something of a mystery. Originally from the Saisio System, they are reclusive and introverted, and show little interest in the ephemeral phenomena of the material world. Intensely spiritual, Achura pilots have only recently taken to the stars, driven in large part by a desire to unlock the secrets of the universe.",
    "race_id": 1,
    "ship_type_id": 601,
    "corporation_id": 1000014,
    "perception": 7,
    "willpower": 6,
    "charisma": 3,
    "memory": 6,
    "intelligence": 8
  },
  "description": "NRDS",
  "alliance": {
    "allianceId": 117383987,
    "name": "Silent Infinity",
    "ticker": "AFK",
    "creatorId": 687770098,
    "creatorCorporationId": 1930163623,
    "date_founded": "2010-09-30T20:47:00Z",
    "executor_corporation_id": 1930163623,
    "url4Icon": "http://image.eveonline.com/Alliance/117383987_128.png"
  },
  "ancestry": {
    "id": 33,
    "name": "Stargazers",
    "bloodline_id": 11,
    "description": "The spiritualism of the Achur is not an organized religion, but the Achura nation nonetheless holds seers and visionaries in high esteem. While the Achur refuse to attribute this vision to supernatural ability, they will acknowledge the Stargazer as possessing a profound awareness and understanding of the living universe.",
    "short_description": "Seers of the hidden mysteries before our very eyes.",
    "icon_id": 3026
  },
  "securityStatus": 5.385395353729599,
  "accountBalance": 64639631.87,
  "urlforAvatar": "http://image.eveonline.com/character/90475644_256.jpg"
}